<?xml version="1.0" encoding="utf-8"?>
<!-- Generator: Adobe Illustrator 16.0.0, SVG Export Plug-In . SVG Version: 6.00 Build 0)  -->
<!DOCTYPE svg PUBLIC "-//W3C//DTD SVG 1.0//EN" "http://www.w3.org/TR/2001/REC-SVG-20010904/DTD/svg10.dtd">
<svg version="1.0" id="Layer_1" xmlns="http://www.w3.org/2000/svg" xmlns:xlink="http://www.w3.org/1999/xlink" x="0px" y="0px"
	 width="800px" height="600px" viewBox="0 0 800 600" enable-background="new 0 0 800 600" xml:space="preserve">
<path id="Shape" fill="#FFFFFF" d="M700.369,180.36c-0.007-33.137-26.876-59.994-60.013-59.987
	c-15.905,0.003-31.159,6.322-42.407,17.567l-197.58,197.58l-197.58-197.58c-23.021-23.835-61.005-24.495-84.84-1.475
	s-24.496,61.005-1.475,84.84c0.483,0.5,0.975,0.992,1.475,1.475l240,240c23.418,23.444,61.408,23.467,84.853,0.047
	c0.017-0.017,0.031-0.031,0.048-0.047l239.999-240C694.08,211.521,700.382,196.263,700.369,180.36z"/>
</svg>
