<svg xmlns="http://www.w3.org/2000/svg" width="23.233" height="18" viewBox="0 0 23.233 18">
  <g id="Grupo_318" data-name="Grupo 318" transform="translate(-361.267 -29.5)">
    <line id="Linha_16" data-name="Linha 16" x1="23.233" transform="translate(361.267 30.5)" fill="none" stroke="#fff" stroke-width="2"/>
    <line id="Linha_17" data-name="Linha 17" x1="23.233" transform="translate(361.267 38.5)" fill="none" stroke="#fff" stroke-width="2"/>
    <line id="Linha_18" data-name="Linha 18" x1="23.233" transform="translate(361.267 46.5)" fill="none" stroke="#fff" stroke-width="2"/>
  </g>
</svg>
